<?xml version="1.0" encoding="utf-8"?>
<!-- Generator: Adobe Illustrator 16.0.0, SVG Export Plug-In . SVG Version: 6.00 Build 0)  -->
<!DOCTYPE svg PUBLIC "-//W3C//DTD SVG 1.1//EN" "http://www.w3.org/Graphics/SVG/1.1/DTD/svg11.dtd">
<svg version="1.1" id="Layer_1" xmlns="http://www.w3.org/2000/svg" xmlns:xlink="http://www.w3.org/1999/xlink" x="0px" y="0px"
	 width="150px" height="19px" viewBox="0 0 150 19" enable-background="new 0 0 150 19" xml:space="preserve">
<path fill="#2255FF" d="M123.256,9.762h2.156c1.366,0,2.197-0.792,2.197-1.999c0-1.247-0.831-2.019-2.197-2.019h-2.156V9.762z
	 M125.75,12.117h-2.514V17.4h-2.73V3.371h5.244c2.77,0,4.609,1.84,4.609,4.373C130.359,10.297,128.52,12.117,125.75,12.117z
	 M137.998,7.625v2.651c-0.297-0.06-0.555-0.079-0.792-0.079c-1.345,0-2.513,0.652-2.513,2.75V17.4h-2.632V7.665h2.553v1.444
	c0.594-1.286,1.938-1.523,2.771-1.523C137.602,7.585,137.8,7.605,137.998,7.625z M144.132,15.303c1.286,0,2.474-0.93,2.474-2.771
	s-1.188-2.77-2.474-2.77s-2.474,0.929-2.474,2.77C141.658,14.353,142.846,15.303,144.132,15.303z M144.132,7.368
	c2.909,0,5.104,2.157,5.104,5.165c0,2.987-2.195,5.165-5.104,5.165s-5.105-2.178-5.105-5.165
	C139.026,9.524,141.223,7.368,144.132,7.368z"/>
<path fill="none" stroke="#989EB3" stroke-linecap="square" d="M110.394,3.371v14.327"/>
<g>
	<path fill="#FFFFFF" d="M30.83,2.787c-4.283,0-7.511,3.252-7.511,7.611c0,4.315,3.228,7.568,7.511,7.568
		c4.325,0,7.553-3.253,7.553-7.568C38.382,6.039,35.156,2.787,30.83,2.787z M30.852,14.538c-2.303,0-3.981-1.8-3.985-4.141
		c0-2.377,1.683-4.162,3.985-4.162c2.372,0,3.986,1.778,3.986,4.162C34.838,12.738,33.219,14.538,30.852,14.538z"/>
	<path fill="#FFFFFF" d="M2.382,7.639v9.655c0,0.246,0.199,0.445,0.443,0.445H5.54c0.245,0,0.442-0.199,0.442-0.445v-6.39
		l-2.61-3.266H2.382z"/>
	<path fill="#FFFFFF" d="M22.147,0h-3.512c-0.144,0-0.28,0.063-0.373,0.174l-7.21,8.581c-0.083,0.104-0.21,0.164-0.342,0.164
		c-0.134,0-0.26-0.06-0.344-0.164l-4.73-5.593C5.552,3.059,5.426,3,5.294,3.001H2.593C2.459,3,2.332,3.059,2.247,3.163l-2.19,2.651
		C-0.002,5.879-0.017,5.975,0.02,6.056c0.037,0.081,0.117,0.133,0.206,0.131h1.926h1.904l6.2,7.705
		c0.085,0.105,0.213,0.166,0.348,0.165h0.201c0.134,0.001,0.261-0.059,0.346-0.162L22.338,0.402c0.06-0.074,0.073-0.176,0.032-0.262
		S22.242-0.001,22.147,0z"/>
	<path fill="#FFFFFF" d="M15.424,17.294c0,0.246,0.199,0.445,0.443,0.445h2.721c0.245,0,0.443-0.199,0.443-0.445V6.619l-3.607,4.372
		V17.294z"/>
	<path fill="#FFFFFF" d="M77.926,3.295c-0.064-0.177-0.232-0.294-0.421-0.292h-3.612C73.706,3,73.537,3.114,73.471,3.291
		l-5.429,14.146c-0.03,0.07-0.022,0.151,0.02,0.213c0.043,0.063,0.115,0.1,0.189,0.098h3.018c0.189,0.003,0.359-0.115,0.424-0.295
		l0.627-1.68c0.164-0.442,0.584-0.736,1.053-0.736h4.576c0.471,0.003,0.89,0.3,1.052,0.746l0.608,1.669
		c0.063,0.179,0.234,0.299,0.423,0.296h3.009c0.077,0.006,0.151-0.029,0.196-0.092s0.056-0.145,0.026-0.216L77.926,3.295z
		 M77.554,12.182c-0.087,0.124-0.229,0.195-0.377,0.191h-3.021l-0.002-0.002c-0.149,0.005-0.292-0.067-0.377-0.191
		c-0.086-0.123-0.104-0.283-0.047-0.423l1.771-4.589c0.03-0.092,0.115-0.153,0.21-0.153c0.096,0,0.181,0.062,0.21,0.153l1.679,4.593
		C77.656,11.9,77.638,12.06,77.554,12.182z"/>
	<path fill="#FFFFFF" d="M96.326,10.607c-0.106-0.152-0.106-0.356,0-0.511l4.564-6.739c0.05-0.069,0.057-0.16,0.017-0.235
		c-0.039-0.076-0.118-0.122-0.203-0.119h-3.51c-0.149-0.001-0.288,0.073-0.372,0.199l-2.85,4.216
		C93.892,7.546,93.75,7.624,93.6,7.624c-0.151,0-0.292-0.078-0.374-0.206l-2.857-4.216c-0.083-0.125-0.223-0.2-0.372-0.199h-3.487
		C86.424,3,86.345,3.046,86.306,3.122c-0.04,0.075-0.033,0.167,0.018,0.235l4.576,6.739c0.108,0.154,0.108,0.359,0.001,0.514
		l-4.58,6.782c-0.05,0.068-0.058,0.16-0.018,0.236c0.04,0.075,0.119,0.121,0.203,0.118h3.447c0.15,0.001,0.29-0.074,0.373-0.199
		l2.892-4.28c0.081-0.128,0.222-0.206,0.373-0.206s0.292,0.078,0.373,0.206l2.895,4.29c0.083,0.124,0.222,0.199,0.371,0.198h3.471
		c0.084,0.003,0.163-0.044,0.203-0.119c0.04-0.074,0.032-0.167-0.019-0.235L96.326,10.607z"/>
	<path fill="#FFFFFF" d="M49.228,3.009h-6.12c-0.245,0-0.443,0.2-0.443,0.446l0.007,13.852c0,0.246,0.198,0.445,0.442,0.445h6.114
		c4.325,0,7.553-2.601,7.553-7.35C56.781,5.611,53.556,3.032,49.228,3.009z M49.069,14.581h-2.121
		c-0.37-0.007-0.666-0.31-0.665-0.683V6.849c-0.002-0.181,0.066-0.355,0.19-0.485c0.125-0.129,0.296-0.204,0.475-0.207h2.121
		c2.372,0,3.986,1.506,3.986,4.238C53.055,13.084,51.436,14.581,49.069,14.581z"/>
	<path fill="#FFFFFF" d="M64.219,3.003h-2.705c-0.118,0-0.23,0.047-0.313,0.13s-0.129,0.197-0.129,0.315v13.833
		c0,0.246,0.198,0.446,0.443,0.446h2.705c0.245,0,0.444-0.2,0.444-0.446V3.449C64.663,3.203,64.464,3.003,64.219,3.003z"/>
</g>
</svg>
